Portfolio 6
…
So we’re missing data grom some states, but it looks like we’ve got a
decent portion of the US covered. Just out of curiosity, let’s see where
the schools we just filtered out are actually located:

measles_clean <- measles %>%
  filter(lng < 0)

measles_clean

## # A tibble: 64,476 × 16
##    index state   year    name   type  city  county district enroll   mmr overall
##    <dbl> <chr>   <chr>   <chr>  <chr> <chr> <chr>  <lgl>     <dbl> <dbl>   <dbl>
##  1     1 Arizona 2018-19 A J M… Publ… Noga… Santa… NA           51   100      -1
##  2     2 Arizona 2018-19 Acade… Char… Tucs… Pima   NA           22   100      -1
##  3     3 Arizona 2018-19 Acade… Char… Tucs… Pima   NA           85   100      -1
##  4     4 Arizona 2018-19 Acade… Char… Phoe… Maric… NA           60   100      -1
##  5     5 Arizona 2018-19 Accla… Char… Phoe… Maric… NA           43   100      -1
##  6     6 Arizona 2018-19 Alfre… Publ… Phoe… Maric… NA           36   100      -1
##  7     7 Arizona 2018-19 All A… Char… Phoe… Maric… NA           24   100      -1
##  8     8 Arizona 2018-19 Ameri… Char… Yuma  Yuma   NA           22   100      -1
##  9     9 Arizona 2018-19 Arizo… Priv… Phoe… Maric… NA           26   100      -1
## 10    10 Arizona 2018-19 Arizo… Publ… San … Yuma   NA           78   100      -1
## # ℹ 64,466 more rows
## # ℹ 5 more variables: xrel <lgl>, xmed <dbl>, xper <dbl>, lat <dbl>, lng <dbl>
…
